<svg width="212" height="237" viewBox="0 0 212 237" fill="none" xmlns="http://www.w3.org/2000/svg">
<g opacity="0.75">
<path opacity="0.88" d="M150.728 190.636L173.46 234.117L180.594 233.133L160.575 190.348L150.728 190.636Z" fill="#273137"/>
<path d="M97.148 177.234L120.651 188.594H122.932L126.365 176.444L132.547 170.753L177.286 168.07L193.85 135.906L198.732 131.218C199.717 130.449 200.932 130.031 202.183 130.031L208.035 130.814L207.369 130.031H160.128L154.54 145.023L140.956 153.075L121.122 156.707L98.1221 163.025L97.148 177.234Z" fill="#282828"/>
<path d="M97.1477 234.116H107.288L132.025 191.172L150.73 190.635L160.577 190.361L161.189 190.343C161.189 190.343 181.49 190.555 182.12 190.772C182.75 190.988 204.526 233.088 204.526 233.088H210.653L188.878 185.283L210.997 137.211C211.288 136.579 211.432 135.89 211.417 135.195C211.402 134.499 211.229 133.816 210.91 133.198L209.976 131.373C209.768 130.969 209.452 130.63 209.063 130.393C208.674 130.156 208.227 130.031 207.771 130.031H200.249L195.958 133.381C193.876 135.009 192.198 137.092 191.054 139.469L177.293 168.063L132.554 170.746L126.372 176.437L122.932 188.594L122.715 189.383L97.1477 234.116Z" fill="#363636"/>
<path d="M162.829 43.5065C161.93 41.393 160.463 39.5676 158.589 38.2314C156.715 36.8952 154.506 36.1 152.208 35.9333C147.105 35.5727 142.622 38.4108 140.619 41.9305C139.192 44.4549 139.457 47.6177 139.985 53.9286C140.413 59.046 140.967 59.5617 141.412 64.6645C141.952 70.8998 142.223 74.0156 141.253 76.6662C139.442 81.5924 136.44 80.8135 131.899 87.8746C128.491 93.1758 127.915 97.1319 127.778 98.4518C127.463 101.304 127.119 104.391 128.886 106.663C131.83 110.45 139.312 110.27 144.425 107.925C150.817 104.99 154.438 98.2318 156.973 93.5545C158.882 90.0095 160.149 86.5258 164.108 83.1359C166.237 81.3111 166.693 81.614 168.707 79.9768C174.834 74.9893 176.395 67.4738 176.634 66.2405C177.235 63.1355 178.488 56.6514 174.414 50.7695C170.528 45.1726 164.383 43.8058 162.829 43.5065Z" fill="#282828"/>
<path d="M151.501 70.1407V85.4565C151.501 87.1628 152.181 88.7992 153.393 90.0058C154.605 91.2123 156.248 91.8902 157.961 91.8902C159.675 91.8902 161.318 91.2123 162.53 90.0058C163.741 88.7992 164.422 87.1628 164.422 85.4565V70.1407C164.422 68.4344 163.741 66.7979 162.53 65.5914C161.318 64.3849 159.675 63.707 157.961 63.707C156.248 63.707 154.605 64.3849 153.393 65.5914C152.181 66.7979 151.501 68.4344 151.501 70.1407Z" fill="#FFC1A6"/>
<path d="M161.641 75.9531C161.641 75.9531 156.647 81.1605 151.501 79.2673C151.501 76.5049 151.895 76.7429 151.895 76.7429C151.895 76.7429 160.37 77.374 161.641 75.9531Z" fill="#E89680"/>
<path d="M160.216 46.6642C160.042 51.1083 160.967 55.5268 162.91 59.5314C163.566 60.8571 164.335 62.124 165.21 63.318C165.011 61.3057 166.028 59.7118 167.27 59.4521C168.512 59.1924 169.686 60.415 169.885 60.635C171.098 61.9765 171.384 64.2701 170.374 65.5287C169.711 66.3437 168.541 66.6863 167.915 66.8702C167.527 66.984 167.129 67.0637 166.727 67.1082C164.304 67.4076 162.305 74.8077 158.481 77.3717C155.139 79.6149 149.562 78.7205 146.592 76.0302C144.781 74.4038 144.26 71.4755 143.26 65.6874C142.232 59.7154 141.739 56.6717 142.866 54.1473C144.926 49.542 149.801 47.7822 151.195 47.2953C154.088 46.2698 157.207 46.0516 160.216 46.6642Z" fill="#FFC1A6"/>
<path d="M154.267 55.4219C155.745 55.4724 157.226 55.5517 158.707 55.5517" stroke="#1E1D1D" stroke-width="1.5" stroke-miterlimit="10"/>
<path d="M148.48 53.8203H143.881" stroke="#1E1D1D" stroke-width="1.5" stroke-miterlimit="10"/>
<path d="M156.065 60.7158C155.365 60.7158 154.797 60.1507 154.797 59.4536C154.797 58.7565 155.365 58.1914 156.065 58.1914C156.765 58.1914 157.332 58.7565 157.332 59.4536C157.332 60.1507 156.765 60.7158 156.065 60.7158Z" fill="#1E1D1D"/>
<path d="M145.709 60.7158C145.009 60.7158 144.442 60.1507 144.442 59.4536C144.442 58.7565 145.009 58.1914 145.709 58.1914C146.409 58.1914 146.977 58.7565 146.977 59.4536C146.977 60.1507 146.409 60.7158 145.709 60.7158Z" fill="#1E1D1D"/>
<path d="M151.227 58.2969C150.394 60.3164 147.967 63.3457 148.46 64.24C148.587 64.4672 150.089 64.7737 150.901 65.0406" stroke="#263238" stroke-miterlimit="10"/>
<path d="M152.408 67.3527C152.637 67.3876 152.871 67.3766 153.095 67.3202C153.32 67.2639 153.531 67.1633 153.716 67.0245C153.926 66.855 154.078 66.617 154.306 66.4691C154.755 66.1806 155.418 65.9859 155.718 66.4294C155.858 66.6566 155.919 66.9232 155.892 67.1882C155.865 67.4533 155.752 67.7023 155.57 67.8972C155.208 68.2867 154.628 68.2578 154.096 68.2578C153.744 68.2951 153.388 68.2365 153.067 68.0884C152.851 68.2605 152.653 68.4552 152.477 68.669C152.143 69.0022 151.725 69.24 151.268 69.3578C150.786 69.4984 150.366 69.3578 150.264 68.8673C150.224 68.6286 150.224 68.3848 150.264 68.146C150.493 66.6855 151.311 67.2156 152.408 67.3527Z" fill="#FF2C68"/>
<path d="M91.5625 229.809H78.0873C78.0873 229.809 78.5617 231.074 78.0873 230.995C77.6129 230.916 71.2682 232.257 71.2682 232.798V234.107L91.548 233.905L91.5625 229.809Z" fill="#FF3E79"/>
<path d="M110.437 166.559H97.8633C97.8633 166.559 95.006 202.557 93.5176 208.662C92.0293 214.768 89.6138 230.545 89.6138 230.545H79.3435V169.732C79.3435 169.732 77.4423 157.705 83.5697 151.813C89.6971 145.92 108.094 146.338 108.094 146.338C108.094 146.338 117.835 157.074 110.437 166.559Z" fill="#FFC1A6"/>
<path d="M109.875 229.809H96.3962C96.3962 229.809 96.8742 231.074 96.3962 230.995C95.9181 230.916 89.5807 232.257 89.5807 232.798V234.107L109.861 233.905L109.875 229.809Z" fill="#FF3E79"/>
<path d="M128.849 166.559H116.276C116.276 166.559 113.415 202.557 111.93 208.662C110.446 214.768 108.034 230.556 108.034 230.556H97.767V169.732C97.767 169.732 95.8621 157.705 101.993 151.813C108.124 145.92 126.514 146.338 126.514 146.338C126.514 146.338 136.248 157.074 128.849 166.559Z" fill="#FFC1A6"/>
<path d="M131.625 125.728C131.625 125.728 127.714 132.554 123.401 132.713C119.088 132.872 118.092 130.975 116.158 126.871C114.224 122.767 109.878 103.347 110.248 99.7155C108.024 99.0844 106.579 97.1911 105.935 96.8738C105.29 96.5564 103.421 92.6039 103.494 91.9007C103.566 91.1975 103.997 88.0311 104.432 86.2929C104.866 84.5547 105.156 83.0004 105.935 82.189C106.713 81.3775 107.448 79.6826 107.448 79.6826L108.314 81.5579L108.35 85.7808L109.639 83.1519L109.451 79.697C109.451 79.697 109.357 76.7291 109.886 76.6786C110.414 76.6281 111.084 76.3504 110.94 77.6198C110.795 78.8892 111.707 83.8731 111.707 83.8731L112.855 82.8742L112.808 80.5553L112.616 77.1366C112.616 77.1366 112.279 75.6616 113.047 75.5065C113.815 75.3515 113.96 76.5055 113.96 76.5055L114.344 82.0844L114.583 83.4007C114.583 83.4007 114.677 84.241 115.061 83.4007C115.445 82.5604 115.445 80.2416 115.445 80.2416C115.445 80.2416 115.206 78.0778 115.35 77.2952C115.495 76.5127 116.498 76.6641 116.498 76.6641L117.074 77.9804L117.556 84.0823L117.219 88.1898C117.471 87.4922 117.882 86.8616 118.418 86.347C119.327 85.4527 120.333 84.1832 120.525 84.1832C120.717 84.1832 121.007 83.8659 121.724 83.9705C122.441 84.075 123.115 84.6557 122.684 85.1822C122.253 85.7087 122.3 85.2868 121.771 86.0224C121.242 86.7581 119.903 89.4448 119.903 89.4448C119.893 90.238 119.829 91.0296 119.711 91.8141C119.569 92.2866 119.327 95.8135 119.185 96.5023C119.044 97.1911 124.169 113.87 124.169 113.87L124.599 116.135L127.095 113.82L131.625 125.728Z" fill="#FFC1A6"/>
<path d="M184.562 131.808C183.838 119.283 183.169 106.488 182.427 93.9638C179.917 93.1705 177.113 92.7742 174.738 93.9058C170.537 95.9686 169.479 100.17 169.345 100.758C169.91 111.039 168.784 121.314 169.345 131.599C173.854 131.375 180.054 132.017 184.562 131.808Z" fill="#FF3E79"/>
<path d="M91.858 147.964C91.858 147.964 107.282 148.44 109.816 148.325C112.351 148.21 121.981 147.604 123.578 148.325C125.175 149.046 129.705 153.266 129.597 157.362C129.488 161.459 128.441 167.049 128.441 167.049C128.441 167.049 165.963 168.635 169.772 167.258C173.582 165.88 176.53 160.016 176.729 157.708C176.928 155.4 174.611 144.646 174.611 144.646C174.611 144.646 170.066 130.135 170.71 129.385C171.355 128.635 176.211 118.346 176.211 118.346L182.426 93.9638C182.426 93.4298 181.889 92.4907 181.176 91.4472C180.464 90.4037 179.466 89.5851 178.301 89.0881C174.187 87.1912 165.506 83.9167 165.506 83.9167L164.42 84.0249V85.4674C164.42 87.1737 163.739 88.8101 162.528 90.0166C161.316 91.2232 159.673 91.901 157.959 91.901C156.246 91.901 154.603 91.2232 153.391 90.0166C152.179 88.8101 151.499 87.1737 151.499 85.4674V83.5777C149.793 83.1666 146.954 82.6473 145.705 83.2928L143.868 84.2412L133.826 97.3898L126.946 108.771L123.158 114.765L131.487 129.295C131.487 129.295 139.733 118.955 139.841 118.45C139.95 117.946 140.903 122.443 140.903 122.443C140.903 122.443 142.069 129.385 140.794 132.23C139.519 135.075 134.775 139.976 130.965 140.593C127.156 141.21 116.266 143.276 112.456 143.795C108.647 144.315 91.858 147.964 91.858 147.964Z" fill="#FF3E79"/>
<path d="M185.169 136.097C184.998 138.279 184.249 140.486 182.688 142.026C180.475 144.19 177.078 144.655 173.968 144.503C169.694 144.298 165.526 143.191 161.325 142.376C152.018 140.573 142.494 140.194 133.078 139.289C131.8 139.166 130.276 138.852 129.819 137.659C132.066 137.958 134.348 137.847 136.555 137.331C134.169 136.764 131.7 136.628 129.265 136.927C128.903 136.018 129.696 134.997 130.627 134.705C131.557 134.413 132.568 134.626 133.524 134.792C134.48 134.958 135.537 135.066 136.392 134.593L130.174 133.472C129.772 133.4 129.301 133.274 129.153 132.891C129.105 132.696 129.13 132.491 129.223 132.313C129.317 132.135 129.472 131.997 129.66 131.925C130.041 131.791 130.449 131.755 130.848 131.82L138.09 132.401C135.794 132.416 133.552 131.708 131.684 130.378C134.632 129.201 137.885 129.016 140.948 129.851C140.948 128.964 140.118 128.344 139.394 127.832C138.67 127.32 137.895 126.562 138.09 125.7C138.286 124.838 139.539 124.463 140.39 124.824C141.241 125.185 141.839 125.985 142.414 126.714C143.664 128.286 145.159 129.729 147.017 130.497C148.611 131.153 150.363 131.279 152.087 131.366C162.473 131.726 172.78 131.366 183.065 129.793C184.922 129.509 184.738 129.923 184.973 131.705C185.192 133.158 185.257 134.63 185.169 136.097Z" fill="#FFC1A6"/>
<path d="M47.1442 225.176V233.914H66.0117C66.0117 233.914 60.8331 231.49 60.1994 230.755C59.5656 230.019 59.8807 225.493 59.8807 225.493L47.1442 225.176Z" fill="#FF3E79"/>
<path d="M2.53667 222.168L0.00169182 230.527L18.0508 236.002C18.0508 236.002 13.7848 232.197 13.3937 231.292C13.0025 230.387 14.6285 226.167 14.6285 226.167L2.53667 222.168Z" fill="#FF3E79"/>
<path d="M16.5986 229.807C16.5986 229.807 4.55025 227.596 0.852798 222.018C6.56012 214.019 27.8032 172.55 28.1219 170.653C28.4406 168.756 4.65527 130.984 3.38778 127.814C2.12029 124.644 -0.733372 116.447 0.852798 112.448L1.69657 110.868L22.0416 109.66C22.0416 109.66 50.4225 162.55 50.4225 166.499C50.4225 170.448 50.7412 173.444 48.9957 176.917C47.2502 180.39 16.5986 229.807 16.5986 229.807Z" fill="#282828"/>
<path d="M63.739 229.081H43.9191L57.0792 165.456C57.0792 165.456 30.4438 145.877 22.8317 140.352C15.2195 134.828 9.83084 129.93 7.45521 122.512C6.04343 117.987 6.04343 113.142 7.45521 108.617L42.4922 110.51C42.4922 110.51 72.7744 150.14 73.7268 154.72C74.6792 159.3 75.1536 164.98 74.5199 169.56C73.8861 174.14 63.739 229.081 63.739 229.081Z" fill="#282828"/>
<path d="M57.082 165.457L24.7575 141.374C22.0631 139.365 19.3579 137.407 16.8664 135.168C14.3749 132.928 12.0789 130.516 10.3733 127.692C9.51931 126.287 8.81073 124.8 8.25838 123.252C7.69917 121.712 7.32002 120.112 7.12849 118.485C6.93779 116.859 6.92081 115.217 7.0778 113.588C7.15659 112.774 7.27746 111.965 7.43995 111.164C7.59242 110.374 7.7981 109.594 8.05559 108.831L7.43269 109.242L42.4589 111.406L42.5566 109.621L7.5015 107.994L7.01985 107.973L6.87863 108.405C6.36162 110.058 6.03955 111.764 5.91895 113.49C5.78064 115.201 5.82555 116.921 6.05294 118.622C6.27916 120.323 6.70204 121.991 7.31318 123.595C7.90908 125.198 8.67001 126.735 9.58381 128.182C11.3945 131.067 13.8064 133.541 16.3558 135.755C18.9053 137.97 21.6757 139.917 24.3953 141.886L57.082 165.457Z" fill="#363636"/>
<path d="M18.2756 129.221C20.836 131.024 24.2256 131.024 27.3617 130.923C28.3621 128.208 29.2084 125.438 29.8967 122.628C30.0449 122.195 30.0449 121.724 29.8967 121.291C29.5599 120.569 28.5821 120.479 27.7818 120.494L16.0376 120.728C15.049 120.75 14.064 120.764 13.0753 120.789C12.0867 120.815 11.9672 120.84 12.4851 121.644C13.2854 122.888 14.1799 124.075 14.9693 125.33C15.8891 126.783 16.8669 128.222 18.2756 129.221Z" fill="#363636"/>
<path d="M41.8148 93.4528C44.4806 97.9808 48.6167 101.469 53.5409 103.341C56.1157 104.311 59.0852 104.784 61.5731 103.615C62.9022 102.984 63.9777 101.938 64.97 100.864C68.8956 96.6191 71.952 91.6713 75.3706 87.0119C78.7892 82.3526 82.7003 77.8772 87.7739 75.1112C89.0342 74.4188 90.3705 73.831 91.4822 72.9258C92.594 72.0206 93.4921 70.7079 93.4776 69.2762C91.9112 71.1727 89.7852 72.5303 87.4009 73.1566C86.1407 73.4848 84.6088 73.5172 83.7361 72.5615C82.5808 71.2813 83.4789 69.0887 84.9782 68.234C86.4775 67.3793 88.299 67.3937 90.0192 67.2098C91.7393 67.0259 93.6406 66.4886 94.4844 64.9883C90.9426 63.2862 86.6115 64.0147 83.1711 65.9152C79.7308 67.8157 76.9967 70.7332 74.3277 73.6074L60.2042 88.8223C58.8788 90.2648 56.945 91.8083 55.1995 90.9536C54.4209 90.593 53.9283 89.8032 53.4539 89.0819C51.77 86.5179 43.7776 75.1653 39.9244 77.7835C38.2296 78.9339 38.646 82.3959 38.809 84.0908C39.1254 87.39 40.1505 90.5828 41.8148 93.4528Z" fill="#FFC1A6"/>
<path d="M67.22 83.842C66.9665 83.0775 65.9778 82.908 65.1703 82.8647C63.3053 82.7637 61.4149 82.6699 59.5969 83.0955C55.7402 83.9971 52.8358 87.0624 50.1813 90.0015C50.3153 90.0412 50.3189 89.8861 50.4493 89.9258C50.7034 94.0277 51.5435 98.0726 52.9444 101.938C53.6361 103.839 54.5161 105.761 56.0697 107.059C58.9451 109.465 63.164 109.082 66.8796 108.538C75.4514 107.279 84.0015 105.869 92.5516 104.456C96.5062 103.803 100.54 103.125 104.082 101.246C106.461 99.9654 108.534 98.1882 110.159 96.0358C111.784 93.8834 112.923 91.4068 113.498 88.7754C113.86 86.9939 113.965 85.0681 113.186 83.4237C112.408 81.7792 110.554 80.5386 108.772 80.9389C106.599 81.4258 105.6 83.824 104.593 85.7894C103.679 87.564 102.517 89.2007 101.142 90.6507C99.8922 91.967 97.991 93.9649 96.2056 94.531C95.1808 94.8556 93.7866 94.7041 92.7001 94.7979C91.4037 94.9133 90.1145 95.0576 88.8216 95.2018C86.2396 95.4939 83.6575 95.8004 81.061 95.9231C78.514 96.0415 75.9619 95.9813 73.4234 95.7427C72.0763 95.6129 70.5951 95.3641 69.7405 94.3002C68.2919 92.5151 69.5304 89.5724 68.1797 87.7115C67.698 87.048 67.8175 85.876 67.5749 85.0934C67.8175 84.5452 67.4192 84.4262 67.22 83.842Z" fill="#FFC1A6"/>
<path d="M48.6956 81.1806C49.1446 87.6719 49.5394 93.0813 49.5394 93.0813L68.6133 88.8764L67.9832 56.9716C67.9832 56.9716 65.9515 52.7847 62.6995 51.7461L50.4628 80.5531C50.4628 80.5531 49.677 80.7875 48.6956 81.1806Z" fill="#FF3E79"/>
<path d="M0.389008 113.819L40.1701 114.541C40.1701 114.541 42.9006 86.1411 44.0885 84.136C44.8127 82.8991 47.0725 81.828 48.6876 81.1825C49.6763 80.7894 50.4476 80.555 50.4476 80.555L62.6843 51.748L62.793 51.4992C62.793 51.4992 31.9242 46.5586 31.6019 46.5586C31.2795 46.5586 24.4134 53.1978 24.4134 53.1978C24.4134 53.1978 16.0842 65.7224 12.0499 75.5098C8.01568 85.2973 0.389008 113.819 0.389008 113.819Z" fill="#FF3E79"/>
<path d="M3.49735 96.3545L35.4091 102.19V115.039L67.5381 156.226L75.6211 151.022L44.8791 114.714L44.2852 103.802L44.1439 101.097L43.55 90.1301L52.857 80.1443L52.1725 77.6055L38.375 84.5836L35.4091 98.4498V99.5064L3.98261 93.7616L3.49735 96.3545Z" fill="#363636"/>
<path d="M10.8216 106.052C9.99382 105.005 9.38477 103.803 9.03027 102.518C8.67577 101.233 8.58299 99.8901 8.75738 98.5688C8.92759 97.2994 9.31872 95.846 10.2277 94.8903C11.0534 94.032 11.9116 94.0681 12.8822 94.6199C13.7622 95.1175 14.7218 95.5359 14.8993 96.6502C15.1093 98.0026 14.0338 99.2215 12.9799 99.8959C10.282 101.631 6.9286 100.898 4.02423 100.21C3.46292 100.08 3.02109 99.4487 2.46701 99.3153C5.00199 99.9175 7.78686 100.552 10.3291 99.5569C12.1108 98.8573 14.9391 96.0083 12.4259 94.3674L13.9577 95.2438C11.4227 94.1078 10.3834 98.3308 10.2566 100.008C10.0663 102.502 10.8237 104.977 12.3788 106.943C12.0384 106.51 11.1692 106.485 10.8216 106.048V106.052Z" fill="#4C4C4C"/>
<path d="M9.97491 98.7637C9.83006 93.6247 13.4225 89.0736 17.0403 85.7522C19.6694 83.336 23.7072 79.8126 27.5169 80.8296C28.9836 81.2191 30.3199 81.9115 30.1352 83.7146C29.8817 86.1597 27.3503 88.1612 25.5541 89.5676C23.4573 91.2085 21.2845 92.7484 19.1986 94.4037C17.1127 96.059 14.9833 97.469 12.2854 97.6926C12.1441 97.6926 11.0179 97.4438 10.9853 97.332C9.50412 92.9071 4.85425 90.4368 3.74249 85.7197C2.90957 82.2108 4.86151 76.7581 9.38825 77.5695C17.8116 79.0841 13.618 92.7881 12.0174 97.9379C12.0174 97.9631 10.7173 97.5772 10.7173 97.5772C11.8508 93.9277 12.7924 90.0978 13.035 86.2679C13.2016 83.5776 12.8503 78.5143 9.56569 77.6128L10.5471 77.8688C5.79219 77.537 4.06116 82.8383 5.20552 86.6466C6.52371 91.0138 10.8839 93.4444 12.2962 97.6674L10.9961 97.3068C15.6315 96.9245 19.2565 92.8674 22.8236 90.26C24.9204 88.731 32.3225 82.9104 27.1475 80.6889L27.6256 80.8224L27.1802 80.7034L28.0058 80.9161C25.833 80.6312 23.8122 81.998 22.074 83.1412C20.1816 84.3954 18.4383 85.8593 16.8773 87.5049C13.8969 90.6387 11.1591 94.5768 11.2859 99.0666C11.2859 98.9476 9.98939 98.8575 9.98576 98.706L9.97491 98.7637Z" fill="#4C4C4C"/>
<path d="M63.4719 44.2532C58.9493 43.0161 56.961 35.9303 59.0308 28.4267C61.1006 20.9231 66.4448 15.8431 70.9674 17.0803C75.49 18.3174 77.4783 25.4032 75.4085 32.9068C73.3386 40.4104 67.9944 45.4903 63.4719 44.2532Z" fill="#FFC1A6"/>
<path d="M67.5265 28.9056C67.9901 28.6676 76.2179 24.3833 78.1517 20.456C78.5343 19.6803 78.7793 18.8446 78.876 17.9858C78.9557 16.7452 78.5935 15.4181 77.6882 13.6582C76.1817 10.7371 68.0191 4.02584 65.0857 3.56063C62.1524 3.09542 56.2857 2.21909 52.878 4.11239C50.5784 2.61217 50.343 -0.781341 46.7723 0.163505C44.5924 0.686048 42.7101 2.04939 41.5394 3.95371C41.1447 4.50547 41.4633 9.0025 41.5394 9.72376C41.7422 11.5269 44.0744 10.8056 44.7986 11.6964C46.852 14.2208 39.9134 22.9768 37.8492 25.6166C25.732 41.1056 19.141 49.7427 20.3035 58.5636C20.452 59.6924 21.3103 65.2533 25.5871 67.94C29.4475 70.3598 34.0322 69.1372 39.0117 67.7308C45.4469 65.9277 54.3483 63.4033 59.2915 54.6797C59.2915 54.6797 62.8404 48.4372 62.3552 38.574C62.2429 36.2876 62.156 34.5133 60.9827 32.7859C60.396 31.924 59.8456 31.5273 59.3965 30.3661C59.0959 29.5872 58.4477 27.9211 59.2915 26.2586C60.3055 24.2571 62.6196 23.9614 62.7789 23.9433C63.613 23.8389 64.4594 23.9859 65.2088 24.3653C66.7262 25.1442 67.6062 26.9257 67.5265 28.9056Z" fill="#363636"/>
<path d="M74.7461 19.9926C73.3229 19.4553 71.7259 19.4914 70.223 19.6573C68.7201 19.8231 67.2353 20.1369 65.7904 20.2234C64.3619 20.3097 62.9299 20.1236 61.5714 19.6753C60.1976 19.2302 58.8896 18.6044 57.6821 17.8144C56.4453 17.0231 55.2687 16.1419 54.1621 15.1782C53.0213 14.237 51.924 13.2164 50.7761 12.2463C48.5091 10.2809 46.2095 8.35153 43.8158 6.51953C45.8256 8.75904 47.9297 10.9048 50.0627 13.0109C51.1201 14.0927 52.2029 15.1133 53.3219 16.1375C54.4532 17.1671 55.6641 18.1064 56.9433 18.9468C58.2596 19.7888 59.6884 20.4419 61.1876 20.887C62.7075 21.3301 64.3034 21.453 65.8737 21.2476C67.4236 21.0601 68.8686 20.6129 70.3171 20.292C71.7586 19.8989 73.2645 19.7972 74.7461 19.9926Z" fill="#3F3F3F"/>
<path d="M50.6385 4.45703C49.6317 6.2782 48.7517 8.14626 47.9152 10.0287C47.4047 11.0162 47.104 12.0977 47.0316 13.2059C47.0336 13.8121 47.1657 14.4109 47.4191 14.9621C47.6687 15.4875 47.9945 15.9735 48.386 16.4046C49.1315 17.1918 49.9734 17.8824 50.892 18.4602C51.7747 19.0431 52.7008 19.5579 53.6623 20.0001C55.5639 20.8983 57.6056 21.4667 59.6992 21.6806C57.7792 20.9622 55.9223 20.0864 54.1476 19.0625C53.2741 18.5553 52.428 18.0027 51.6126 17.4072C50.8069 16.8485 50.0595 16.2106 49.3819 15.5031C48.7546 14.8788 48.3697 14.0534 48.2954 13.1734C48.2411 12.3079 48.5707 11.3703 48.8821 10.3966C49.5448 8.44919 50.1423 6.47655 50.6385 4.45703Z" fill="#3F3F3F"/>
<path d="M69.8125 23.6062C67.2975 22.7082 64.7177 22.0017 62.0953 21.4929C60.7844 21.2369 59.4589 21.0349 58.1118 20.8654C57.3736 20.7649 56.622 20.8685 55.9389 21.1647C55.5942 21.318 55.2706 21.5143 54.9756 21.749C54.6857 21.9919 54.4267 22.2692 54.2043 22.5748C53.7695 23.1953 53.5026 23.9169 53.4293 24.67L53.1903 26.6319C53.0213 27.9397 52.833 29.244 52.6253 30.5447C52.2161 33.152 51.7526 35.7449 51.1985 38.3234C50.6444 40.9019 50.1121 43.4732 48.812 45.6298C48.1576 46.7035 47.312 47.6494 46.3169 48.421C45.3137 49.2216 44.2056 49.9357 43.1119 50.7182C41.9936 51.4899 40.9551 52.3706 40.012 53.3472C39.0756 54.3259 38.2442 55.3992 37.5314 56.5496C36.1094 58.8305 35.1898 61.3859 34.8334 64.0471C36.0577 58.9039 39.2385 54.4345 43.7058 51.5801C44.7923 50.8589 45.9584 50.1809 47.0484 49.3442C48.1776 48.5092 49.1435 47.4751 49.8984 46.2933C50.6129 45.1085 51.1681 43.8354 51.5498 42.5067C51.9518 41.2013 52.2379 39.8922 52.5167 38.5939C53.049 35.9866 53.5162 33.3612 53.882 30.725C54.063 29.4087 54.2224 28.0852 54.36 26.7581C54.4288 26.0945 54.494 25.4346 54.5519 24.771C54.5519 24.5907 54.5845 24.4789 54.6026 24.3311C54.6287 24.1919 54.6637 24.0546 54.7076 23.9199C54.7925 23.6486 54.9144 23.3901 55.0698 23.1518C55.2286 22.9148 55.4159 22.6981 55.6275 22.5063C55.846 22.3165 56.0897 22.1575 56.3518 22.0339C56.8807 21.7797 57.4691 21.6737 58.0538 21.7273C59.372 21.8211 60.6866 21.9545 61.9975 22.1276C64.6274 22.4795 67.2363 22.9731 69.8125 23.6062Z" fill="#3F3F3F"/>
<path d="M53.7148 17.3945C49.3909 18.0076 45.3856 20.77 43.0824 24.6071C42.5026 25.5702 42.0326 26.5947 41.6809 27.6616C41.3592 28.7206 41.104 29.7986 40.9168 30.8892C40.714 31.9711 40.5547 33.0206 40.3266 34.0483C40.2107 34.5676 40.1056 35.087 39.9644 35.5954C39.8232 36.1039 39.6964 36.6232 39.5262 37.1281C38.9069 39.1673 38.147 41.1615 37.252 43.0965C36.3829 45.0511 35.3797 46.9444 34.3549 48.8377C33.33 50.731 32.2327 52.5882 31.1318 54.4491L29.4949 57.2512C28.9799 58.1964 28.3445 59.0715 27.6046 59.8549C28.4518 59.1651 29.1936 58.356 29.8064 57.4531C30.4474 56.5768 31.0666 55.6896 31.6895 54.8025C32.9208 53.021 34.1339 51.2179 35.2638 49.3606C36.4104 47.5053 37.4608 45.5926 38.4108 43.6302C39.3613 41.6478 40.165 39.5987 40.8154 37.4996C41.4303 35.4005 41.8855 33.2583 42.1771 31.0912C42.3266 30.0467 42.5395 29.0123 42.8144 27.9934C43.1158 26.9963 43.5123 26.0302 43.9987 25.1084C45.0253 23.2465 46.4126 21.606 48.0805 20.2818C49.7483 18.9577 51.6634 17.9763 53.7148 17.3945Z" fill="#3F3F3F"/>
<path d="M109.505 52.0326C105.959 50.2294 105.731 47.0379 104.011 47.1929C102.425 47.3336 100.303 50.2475 100.1 52.4545C100.067 52.8151 100.035 53.6843 99.4661 54.0341C98.9736 54.3334 98.5354 53.9692 97.8799 54.1387C97.0108 54.3622 96.3517 55.3756 96.1888 56.2447C95.9208 57.6872 97.1267 58.0479 97.5613 60.4533C97.8292 61.9174 97.4925 62.4006 97.985 62.8731C98.8613 63.7133 100.321 62.5882 101.367 63.3996C102.005 63.8973 102.074 64.8421 102.215 66.7679C102.37 68.9316 102.019 69.1985 102.32 69.8224C103.363 71.9861 109.367 72.4946 111.091 70.1361C112.289 68.4989 110.674 66.4974 112.043 65.0873C113.13 63.9694 114.6 64.7519 116.693 63.7205C117.244 63.4501 119.442 62.3393 119.865 60.4569C120.463 57.7846 117.233 54.6147 114.263 53.2984C112.032 52.3067 111.547 53.0748 109.505 52.0326Z" fill="#F9B2C9"/>
<path d="M98.9645 66.8854C99.0731 67.5273 99.2868 67.9385 99.6887 67.87C101.072 67.6175 105.186 67.87 106.678 67.87C108.17 67.87 106.982 66.0091 106.678 63.1457C106.513 61.4929 105.714 59.9673 104.447 58.8867L99.1129 62.493C99.0857 62.659 99.0676 62.8263 99.0586 62.9943C98.9464 63.8598 98.7653 65.7386 98.9645 66.8854Z" fill="#FF3E79"/>
<path d="M82.7765 71.6792C82.7765 71.6792 83.7977 72.7899 86.1698 73.2731C88.2376 71.3221 96.1612 68.0115 98.9642 66.8864C98.765 65.7396 98.9642 63.8607 99.0547 62.9844L84.4279 67.6726L82.7765 71.6792Z" fill="#282828"/>
<path d="M91.1424 92.5918L109.974 93.0679C110.13 93.0712 110.285 93.032 110.421 92.9545C110.557 92.877 110.669 92.7641 110.745 92.6279L116.152 82.8476C116.222 82.7195 116.259 82.5756 116.258 82.4294C116.257 82.2833 116.218 82.1399 116.145 82.0129C116.073 81.8859 115.968 81.7796 115.843 81.7042C115.717 81.6287 115.574 81.5865 115.427 81.5818L97.2987 81.25C97.154 81.2491 97.0115 81.285 96.8847 81.3545C96.7579 81.4239 96.6511 81.5245 96.5744 81.6467L90.4507 91.2863C90.3703 91.4129 90.3249 91.5583 90.319 91.7079C90.3131 91.8575 90.3469 92.006 90.4171 92.1384C90.4873 92.2709 90.5912 92.3825 90.7186 92.4621C90.8459 92.5417 90.9921 92.5865 91.1424 92.5918Z" fill="#282828"/>
<path d="M93.4395 91.1519L108.236 91.2385L112.832 83.3984H98.5131L93.4395 91.1519Z" fill="#DBDBDB"/>
<path d="M81.7304 92.1367H107.044C107.38 92.1367 107.652 92.408 107.652 92.7426V94.5313C107.652 94.8659 107.38 95.1371 107.044 95.1371H81.7304C81.3944 95.1371 81.122 94.8659 81.122 94.5313V92.7426C81.122 92.408 81.3944 92.1367 81.7304 92.1367Z" fill="#282828"/>
</g>
</svg>
